<?xml version="1.0" encoding="utf-8"?>
<!-- Generator: Adobe Illustrator 15.0.0, SVG Export Plug-In . SVG Version: 6.00 Build 0)  -->
<!DOCTYPE svg PUBLIC "-//W3C//DTD SVG 1.1//EN" "http://www.w3.org/Graphics/SVG/1.1/DTD/svg11.dtd">
<svg version="1.1" id="Layer_1" xmlns="http://www.w3.org/2000/svg" xmlns:xlink="http://www.w3.org/1999/xlink" x="0px" y="0px"
	 width="600px" height="600px" viewBox="0 0 600 600" enable-background="new 0 0 600 600" xml:space="preserve">
<g>
	<g display="none">
		<rect id="XMLID_5_" x="-69.797" y="-14.277" display="inline" fill="#6F5F60" width="1000" height="600"/>
		<g id="XMLID_1545_" display="inline">
			<path id="XMLID_1547_" fill="#927F80" d="M906.353-14.277C883.401,326.545,325.299,667.684-69.797,483.457v102.266h1000v-600
				H906.353z"/>
		</g>
		<g display="inline">
			<g id="XMLID_1561_">
				<polygon id="XMLID_1644_" fill="#F8E1ED" points="-46.042,129.566 -51.651,124.39 -52.501,125.339 -46.892,130.516 				"/>
				<polygon id="XMLID_1645_" fill="#F8E1ED" points="93.198,258.047 81.595,247.34 80.745,248.29 92.348,258.997 				"/>
				<polygon id="XMLID_1646_" fill="#F8E1ED" points="46.785,215.22 35.182,204.514 34.332,205.463 45.935,216.169 				"/>
				<polygon id="XMLID_1647_" fill="#F8E1ED" points="69.992,236.633 58.388,225.927 57.538,226.876 69.142,237.583 				"/>
				<polygon id="XMLID_1648_" fill="#F8E1ED" points="103.952,269.703 115.555,280.41 116.405,279.46 104.802,268.753 				"/>
				<polygon id="XMLID_1649_" fill="#F8E1ED" points="127.158,291.115 138.761,301.822 139.612,300.873 128.008,290.166 				"/>
				<polygon id="XMLID_1650_" fill="#F8E1ED" points="-12.082,162.636 -0.479,173.343 0.372,172.394 -11.231,161.687 				"/>
				<polygon id="XMLID_1651_" fill="#F8E1ED" points="23.578,193.807 11.975,183.1 11.125,184.049 22.728,194.756 				"/>
				<polygon id="XMLID_1652_" fill="#F8E1ED" points="-35.289,141.223 -23.685,151.93 -22.835,150.981 -34.438,140.273 				"/>
				<polygon id="XMLID_1653_" fill="#F8E1ED" points="156.436,316.398 151.214,311.58 150.364,312.53 156.363,318.064 
					162.82,313.09 162.056,312.067 				"/>
				<polygon id="XMLID_1654_" fill="#F8E1ED" points="173.833,302.998 174.596,304.02 186.372,294.948 185.608,293.926 				"/>
				<polygon id="XMLID_1655_" fill="#F8E1ED" points="244.487,248.571 245.25,249.593 257.026,240.522 256.263,239.5 				"/>
				<polygon id="XMLID_1656_" fill="#F8E1ED" points="220.936,266.713 221.699,267.735 233.475,258.665 232.711,257.643 				"/>
				<polygon id="XMLID_1657_" fill="#F8E1ED" points="327.682,186.097 326.917,185.075 315.142,194.145 315.906,195.167 				"/>
				<polygon id="XMLID_1658_" fill="#F8E1ED" points="197.384,284.856 198.147,285.878 209.923,276.807 209.159,275.785 				"/>
				<polygon id="XMLID_1659_" fill="#F8E1ED" points="280.578,222.38 279.814,221.358 268.039,230.43 268.802,231.452 				"/>
				<polygon id="XMLID_1660_" fill="#F8E1ED" points="350.468,166.932 338.692,176.003 339.457,177.025 351.232,167.954 				"/>
				<polygon id="XMLID_1661_" fill="#F8E1ED" points="291.59,212.287 292.354,213.309 304.13,204.239 303.366,203.217 				"/>
				<polygon id="XMLID_1662_" fill="#F8E1ED" points="362.244,157.86 363.009,158.882 368.781,154.435 375.657,156.762 
					376.057,155.545 368.55,153.005 				"/>
				<polygon id="XMLID_1663_" fill="#F8E1ED" points="405.712,165.577 390.885,160.561 390.485,161.778 405.312,166.794 				"/>
				<polygon id="XMLID_1664_" fill="#F8E1ED" points="420.14,171.812 434.966,176.828 435.366,175.61 420.539,170.594 				"/>
				<polygon id="XMLID_1665_" fill="#F8E1ED" points="494.674,195.676 479.847,190.66 479.447,191.877 494.274,196.893 				"/>
				<polygon id="XMLID_1666_" fill="#F8E1ED" points="449.793,181.844 464.62,186.861 465.02,185.644 450.193,180.626 				"/>
				<polygon id="XMLID_1667_" fill="#F8E1ED" points="516.318,203 509.501,200.693 509.101,201.91 516.669,204.47 522.244,198.68 
					521.341,197.783 				"/>
				<polygon id="XMLID_1668_" fill="#F8E1ED" points="602.692,113.291 592.523,123.852 593.427,124.749 603.596,114.188 				"/>
				<polygon id="XMLID_1669_" fill="#F8E1ED" points="663.707,49.921 653.538,60.483 654.441,61.38 664.61,50.818 				"/>
				<polygon id="XMLID_1670_" fill="#F8E1ED" points="684.045,28.799 673.876,39.359 674.779,40.256 684.948,29.695 				"/>
				<polygon id="XMLID_1671_" fill="#F8E1ED" points="633.199,81.605 634.103,82.502 644.271,71.942 643.368,71.045 				"/>
				<polygon id="XMLID_1672_" fill="#F8E1ED" points="695.117,19.134 700.839,13.191 699.072,13.191 694.214,18.237 				"/>
				<polygon id="XMLID_1673_" fill="#F8E1ED" points="572.186,144.976 573.089,145.872 583.258,135.31 582.355,134.414 				"/>
				<polygon id="XMLID_1674_" fill="#F8E1ED" points="612.861,102.729 613.765,103.626 623.934,93.064 623.03,92.167 				"/>
				<polygon id="XMLID_1675_" fill="#F8E1ED" points="551.847,166.098 552.75,166.995 562.919,156.434 562.016,155.537 				"/>
				<polygon id="XMLID_1676_" fill="#F8E1ED" points="542.581,177.557 541.678,176.66 531.51,187.222 532.412,188.118 				"/>
				<polygon id="XMLID_1677_" fill="#F8E1ED" points="913.043,64.423 900.908,55.214 900.15,56.241 912.285,65.45 				"/>
				<polygon id="XMLID_1678_" fill="#F8E1ED" points="851.612,19.402 863.747,28.611 864.505,27.584 852.37,18.375 				"/>
				<polygon id="XMLID_1679_" fill="#F8E1ED" points="924.42,74.66 930.203,79.049 930.203,77.447 925.177,73.632 				"/>
				<polygon id="XMLID_1680_" fill="#F8E1ED" points="875.882,37.821 888.016,47.03 888.773,46.003 876.639,36.794 				"/>
				<polygon id="XMLID_1681_" fill="#F8E1ED" points="889.608,409.134 894.56,423.174 895.749,422.74 890.799,408.7 				"/>
				<polygon id="XMLID_1682_" fill="#F8E1ED" points="909.411,465.294 914.361,479.334 915.551,478.901 910.601,464.861 				"/>
				<polygon id="XMLID_1683_" fill="#F8E1ED" points="899.51,437.213 904.461,451.254 905.65,450.821 900.699,436.781 				"/>
				<polygon id="XMLID_1684_" fill="#F8E1ED" points="930.203,524.258 930.203,521.095 929.215,521.455 				"/>
				<polygon id="XMLID_1685_" fill="#F8E1ED" points="919.313,493.374 924.264,507.415 925.453,506.982 920.503,492.94 				"/>
				<polygon id="XMLID_1686_" fill="#F8E1ED" points="879.708,381.053 884.658,395.094 885.848,394.66 880.897,380.619 				"/>
				<polygon id="XMLID_1687_" fill="#F8E1ED" points="865.203,359.99 865.378,361.26 872.376,360.26 874.757,367.014 
					875.946,366.58 873.217,358.844 				"/>
				<polygon id="XMLID_1688_" fill="#F8E1ED" points="564.73,402.977 564.906,404.246 579.931,402.098 579.755,400.827 				"/>
				<polygon id="XMLID_1689_" fill="#F8E1ED" points="624.824,394.38 625.001,395.649 640.024,393.499 639.848,392.229 				"/>
				<polygon id="XMLID_1690_" fill="#F8E1ED" points="654.872,390.08 655.047,391.35 670.07,389.201 669.896,387.931 				"/>
				<polygon id="XMLID_1691_" fill="#F8E1ED" points="594.778,398.678 594.953,399.948 609.977,397.799 609.802,396.529 				"/>
				<polygon id="XMLID_1692_" fill="#F8E1ED" points="684.92,385.781 685.095,387.052 700.118,384.902 699.943,383.633 				"/>
				<polygon id="XMLID_1693_" fill="#F8E1ED" points="714.966,381.483 715.142,382.753 730.166,380.604 729.99,379.334 				"/>
				<polygon id="XMLID_1694_" fill="#F8E1ED" points="805.107,368.587 805.283,369.856 820.307,367.708 820.131,366.438 				"/>
				<polygon id="XMLID_1695_" fill="#F8E1ED" points="835.155,364.288 835.33,365.559 850.354,363.409 850.179,362.14 				"/>
				<polygon id="XMLID_1696_" fill="#F8E1ED" points="745.014,377.185 745.189,378.455 760.212,376.306 760.037,375.036 				"/>
				<polygon id="XMLID_1697_" fill="#F8E1ED" points="775.061,372.887 775.236,374.156 790.26,372.006 790.083,370.736 				"/>
				<polygon id="XMLID_1698_" fill="#F8E1ED" points="541.857,406.248 538.562,413.565 539.711,414.1 542.719,407.42 
					549.883,406.396 549.707,405.126 				"/>
				<polygon id="XMLID_1699_" fill="#F8E1ED" points="488.362,525.042 489.513,525.576 495.788,511.641 494.638,511.107 				"/>
				<polygon id="XMLID_1700_" fill="#F8E1ED" points="513.462,469.305 514.611,469.838 520.888,455.903 519.737,455.37 				"/>
				<polygon id="XMLID_1701_" fill="#F8E1ED" points="500.913,497.173 502.063,497.706 508.337,483.771 507.188,483.238 				"/>
				<polygon id="XMLID_1702_" fill="#F8E1ED" points="475.813,552.912 476.963,553.445 483.237,539.511 482.088,538.977 				"/>
				<polygon id="XMLID_1703_" fill="#F8E1ED" points="526.012,441.436 527.162,441.969 533.437,428.034 532.287,427.501 				"/>
				<polygon id="XMLID_1704_" fill="#F8E1ED" points="390.507,416.485 392.818,431.094 394.067,430.891 391.757,416.282 				"/>
				<polygon id="XMLID_1705_" fill="#F8E1ED" points="404.374,504.137 406.686,518.746 407.935,518.543 405.623,503.934 				"/>
				<polygon id="XMLID_1706_" fill="#F8E1ED" points="395.13,445.702 397.44,460.311 398.689,460.108 396.378,445.499 				"/>
				<polygon id="XMLID_1707_" fill="#F8E1ED" points="399.752,474.919 402.063,489.527 403.312,489.325 401.001,474.717 				"/>
				<polygon id="XMLID_1708_" fill="#F8E1ED" points="408.997,533.354 411.308,547.963 412.557,547.761 410.245,533.152 				"/>
				<polygon id="XMLID_1709_" fill="#F8E1ED" points="380.067,393.235 380.018,394.518 387.075,394.797 388.194,401.877 
					389.444,401.674 388.159,393.557 				"/>
				
					<rect id="XMLID_1710_" x="347.433" y="392.261" transform="matrix(-0.9992 -0.0398 0.0398 -0.9992 695.2582 799.6495)" fill="#F8E1ED" width="16.314" height="1.284"/>
				
					<rect id="XMLID_1711_" x="314.831" y="390.962" transform="matrix(-0.9992 -0.0398 0.0398 -0.9992 630.1316 795.7551)" fill="#F8E1ED" width="16.314" height="1.284"/>
				<polygon id="XMLID_1712_" fill="#F8E1ED" points="288.939,397.773 290.18,398.012 291.481,390.993 298.511,391.272 
					298.561,389.99 290.44,389.668 				"/>
				<polygon id="XMLID_1713_" fill="#F8E1ED" points="262.013,543.119 259.209,558.255 260.495,558.255 263.254,543.356 				"/>
				<polygon id="XMLID_1714_" fill="#F8E1ED" points="282.956,430.072 284.197,430.31 287.188,414.161 285.947,413.923 				"/>
				<polygon id="XMLID_1715_" fill="#F8E1ED" points="265.005,526.97 266.246,527.208 269.238,511.058 267.997,510.819 				"/>
				<polygon id="XMLID_1716_" fill="#F8E1ED" points="276.972,462.371 278.213,462.609 281.205,446.46 279.964,446.223 				"/>
				<polygon id="XMLID_1717_" fill="#F8E1ED" points="270.988,494.67 272.229,494.908 275.221,478.758 273.98,478.521 				"/>
				<polygon id="XMLID_1718_" fill="#F8E1ED" points="117.264,511.503 129.828,521.471 130.606,520.461 118.042,510.494 				"/>
				<polygon id="XMLID_1719_" fill="#F8E1ED" points="92.136,491.572 104.7,501.538 105.479,500.528 92.915,490.563 				"/>
				<polygon id="XMLID_1720_" fill="#F8E1ED" points="142.392,531.436 154.956,541.401 155.734,540.393 143.17,530.427 				"/>
				<polygon id="XMLID_1721_" fill="#F8E1ED" points="67.008,471.64 79.572,481.604 80.351,480.596 67.787,470.63 				"/>
				<polygon id="XMLID_1722_" fill="#F8E1ED" points="167.52,551.369 176.2,558.255 178.251,558.255 168.298,550.359 				"/>
				<polygon id="XMLID_1723_" fill="#F8E1ED" points="41.881,451.708 54.445,461.674 55.223,460.664 42.659,450.698 				"/>
				<polygon id="XMLID_1724_" fill="#F8E1ED" points="18.71,442.297 19.726,443.061 23.855,437.408 29.317,441.741 30.096,440.731 
					23.612,435.588 				"/>
				<polygon id="XMLID_1725_" fill="#F8E1ED" points="-17.516,491.893 -16.5,492.656 -7.444,480.259 -8.459,479.494 				"/>
				<polygon id="XMLID_1726_" fill="#F8E1ED" points="0.597,467.096 1.612,467.859 10.669,455.46 9.653,454.696 				"/>
				<polygon id="XMLID_1727_" fill="#F8E1ED" points="-35.629,516.691 -34.613,517.455 -25.557,505.056 -26.572,504.292 				"/>
				<polygon id="XMLID_1728_" fill="#F8E1ED" points="-62.798,553.887 -65.988,558.255 -64.415,558.255 -61.783,554.651 				"/>
				<polygon id="XMLID_1729_" fill="#F8E1ED" points="-53.742,541.488 -52.727,542.252 -43.67,529.854 -44.686,529.09 				"/>
			</g>
			<g id="XMLID_1546_">
				<ellipse id="XMLID_1366_" fill="#F8E1ED" cx="-52.501" cy="125.339" rx="11.846" ry="12.023"/>
				<ellipse id="XMLID_1544_" fill="#554041" cx="-52.501" cy="125.339" rx="6.009" ry="6.099"/>
			</g>
			<g id="XMLID_1549_">
				<ellipse id="XMLID_1551_" fill="#F8E1ED" cx="156.436" cy="316.398" rx="11.846" ry="12.023"/>
				<ellipse id="XMLID_1550_" fill="#554041" cx="156.436" cy="316.398" rx="6.009" ry="6.099"/>
			</g>
			<g id="XMLID_1369_">
				<ellipse id="XMLID_1371_" fill="#F8E1ED" cx="25.81" cy="436.417" rx="11.846" ry="12.023"/>
				<ellipse id="XMLID_1370_" fill="#554041" cx="25.809" cy="436.417" rx="6.009" ry="6.099"/>
			</g>
			<g id="XMLID_1552_">
				<ellipse id="XMLID_1554_" fill="#F8E1ED" cx="368.782" cy="154.435" rx="11.845" ry="12.023"/>
				<ellipse id="XMLID_1553_" fill="#FEC135" cx="368.781" cy="154.435" rx="6.009" ry="6.099"/>
			</g>
			<g id="XMLID_1555_">
				<ellipse id="XMLID_1557_" fill="#F8E1ED" cx="387.075" cy="394.797" rx="11.846" ry="12.023"/>
				<ellipse id="XMLID_1556_" fill="#FEC135" cx="387.076" cy="394.797" rx="6.009" ry="6.099"/>
			</g>
			<g id="XMLID_1558_">
				<ellipse id="XMLID_1560_" fill="#F8E1ED" cx="872.376" cy="360.26" rx="11.846" ry="12.023"/>
				<ellipse id="XMLID_1559_" fill="#554041" cx="872.376" cy="360.26" rx="6.009" ry="6.099"/>
			</g>
		</g>
	</g>
	<g>
		<polygon fill="#3C2E51" points="458.844,334.992 248.931,334.992 206.236,525.02 416.149,525.02 		"/>
		<g>
			<g>
				<polygon fill="#742D84" points="263.274,135.564 231.97,135.564 223.616,274.369 259.047,274.369 				"/>
				<polygon fill="#9D5CA5" points="267.082,135.564 235.278,135.564 227.022,274.369 263.018,274.369 				"/>
				<polygon fill="#742D84" points="271.884,138.994 240.081,138.994 226.919,273.932 260.536,274.103 				"/>
				<path fill="#DDCBA6" d="M264.467,137.401c-7.657,3.01-15.704,3.306-24.063,1.431l-9.358,133.706
					c10.253-1.857,20.093-1.882,27.212,0.297L264.467,137.401z"/>
				<polygon fill="#742D84" points="344.945,132.989 261.77,132.989 250.956,274.369 335.85,274.369 				"/>
				<polygon fill="#A769AC" points="348.721,132.989 265.545,132.989 254.731,274.369 339.625,274.369 				"/>
				<path fill="#EEE3CB" d="M249.06,139.962c-2.846-0.101-5.731-0.474-8.656-1.129l-9.358,133.706
					c4.18-0.757,8.279-1.192,12.166-1.314L249.06,139.962z"/>
				<g opacity="0.45">
					<path fill="#FFFFFF" d="M336.271,268.911h-77.323l9.778-130.464h75.77L336.271,268.911z M260.396,267.567h74.615l8.053-127.777
						h-73.091L260.396,267.567z"/>
				</g>
				<g opacity="0.45">
					<path fill="#FFFFFF" d="M332.591,264.122h-69.087l8.737-120.887h67.698L332.591,264.122z M264.798,262.877h66.666
						l7.195-118.397h-65.305L264.798,262.877z"/>
				</g>
				<polygon opacity="0.6" fill="#C94544" points="311.077,132.944 291.41,188.516 271.362,177.731 260.308,200.064 
					254.819,274.275 337.376,274.275 348.696,223.162 330.173,132.944 				"/>
			</g>
			<path fill="#974633" d="M333.905,69.88c-11.088-3.949-8.051-14.885-3.798-16.708s14.885,0.152,12.606,10.48
				C340.437,73.981,333.905,69.88,333.905,69.88z"/>
			<path fill="#803525" d="M335.105,63.362c-4.824-1.718-6.973-4.759-7.513-7.796c-2.389,3.95-2.31,11.243,6.313,14.314
				c0,0,6.531,4.101,8.809-6.228c0.291-1.316,0.367-2.493,0.277-3.548C340.24,66.579,335.105,63.362,335.105,63.362z"/>
			<path fill="#FDB94B" d="M336.921,70.858c-8.711-2.284-6.324-8.606-2.983-9.66s11.694,0.088,9.905,6.06
				C342.052,73.229,336.921,70.858,336.921,70.858z"/>
			<path fill="#974633" d="M339.069,115.902c-15.342-10.936-15.189-37.212-8.354-47.237c6.834-10.024,25.364-10.024,33.263-0.911
				c7.897,9.113,8.708,23.745,1.873,31.491C359.017,106.991,339.069,115.902,339.069,115.902z"/>
			<path fill="#803525" d="M366.878,90.979c-0.344-16.352-2.631-20.582-9.605-24.699c0,0,8.232,6.861,4.346,16.466L366.878,90.979z"
				/>
			<path fill="#803525" d="M361.905,90.627c-4.717-17.438-8.087-21.493-16.013-24.452c0,0,9.892,5.636,8.662,16.729L361.905,90.627z
				"/>
			<path fill="#803525" d="M347.324,85.376c-8.394-7.091-12.112-16.092-6.794-22.387c0.424-0.501,0.896-0.943,1.389-1.356
				c-4.576,1.018-8.686,3.339-11.203,7.032c-6.836,10.025-6.988,36.301,8.354,47.237c0,0,19.947-8.911,26.782-16.657
				c2.321-2.63,3.739-6.062,4.318-9.793C364.611,94.876,355.345,92.151,347.324,85.376z"/>
			<path fill="#DB2B28" d="M386.396,184.403c-1.142-25.116-26.835-53.486-29.468-53.688c-2.632-0.203-2.165,10.502,4.316,21.033
				c6.48,10.531,13.608,35.491,14.418,38.124C376.474,192.503,386.599,188.858,386.396,184.403z"/>
			<path fill="#EC4848" d="M357.234,128.306c-1.216-0.093-1.833,2.656-1.51,6.677c5.054,3.907,25.866,30.534,28.108,53.425
				c1.521-1.107,2.632-2.506,2.563-4.005C385.255,159.287,359.867,128.508,357.234,128.306z"/>
			<path fill="#EC4848" d="M298.413,185.922c1.143-25.117,26.834-56.604,29.467-56.806c2.633-0.202,1.721,17.923-4.76,28.454
				s-13.163,31.188-13.973,33.82C308.337,194.022,298.211,190.377,298.413,185.922z"/>
			<path fill="#DB2B28" d="M321.14,152.611c-7.938,11.545-10.691,29.043-22.526,28.529c-0.721-0.031,5.126,9.86,3.823,9.708
				c2.854,1.517,6.255,2.021,6.711,0.542c0.81-2.633,9.856-24.474,16.337-35.005c3.644-5.92-0.025-15.382,0.458-21.497
				C324.22,140.633,324.63,147.534,321.14,152.611z"/>
			<path fill="#FEE8CA" d="M314.278,184.514c-4.916-4.002-14.636-5.375-17.151-3.773c-2.516,1.601-1.487,13.264,5.718,15.322
				C310.048,198.121,314.278,184.514,314.278,184.514z"/>
			<path fill="#EC4848" d="M354.841,151.725l-27.164-13.344c12.607,58.628-0.922,51.377,2.229,74.136
				c15.42,6.356,30.254,3.892,44.553-6.647C360.157,202.851,354.841,151.725,354.841,151.725z"/>
			<path fill="#DB2B28" d="M339.708,212.326c-3.453-14.434,1.713-28.04,11.54-30.391c3.147-0.753,6.39-0.248,9.459,1.245
				c-4.135-14.845-5.866-31.456-5.866-31.456l-27.164-13.343c12.607,58.628-0.922,51.377,2.229,74.136
				c3.607,1.487,7.182,2.472,10.725,3.003C340.287,214.48,339.97,213.422,339.708,212.326z"/>
			<path fill="#6E2E4B" d="M350.151,211.747l-78.625-33.236c18.182,28.28,44.264,55.053,53.07,57.498
				c8.805,2.444,39.484,3.708,45.564,1.287c6.078-2.42,53.243-52.772,53.243-52.772S361.999,211.462,350.151,211.747z"/>
			<polygon fill="#94486A" points="391.404,197.949 362.989,215.272 372.538,205.153 			"/>
			<path fill="#EC4848" d="M326.825,129.793c-5.117,9.077,0.041,42.282,2.359,44.504c2.317,2.223,36.44-1.626,38.135-3.109
				c1.695-1.482-6.721-40.47-9.453-42.507s-11.466-5.557-13.481-5.742C342.369,122.753,327.376,128.815,326.825,129.793z"/>
			<path fill="#DB2B28" d="M331.431,171.364c-1.765-1.791-6.012-21.479-6.25-36.07c-1.992,12.805,1.877,37.952,3.849,39.843
				c2.317,2.223,36.596-2.467,38.29-3.949c0.221-0.192,0.268-1.032,0.18-2.332C360.317,170.729,333.579,173.545,331.431,171.364z"/>
			<path fill="#F79468" d="M357.272,177.539c-0.043,2.83-1.629,3.602-1.973,5.489c-0.343,1.887-1.329-0.815-0.9-2.358
				C354.828,179.125,357.272,177.539,357.272,177.539z"/>
			<path fill="#FBB782" d="M352.17,179.768c2.681,1.877,3.858,1.201,4.417,0.558c0.557-0.643,1.2-2.358,1.2-2.358l-3.044-0.857
				l0.085,1.93C354.828,179.04,350.454,178.568,352.17,179.768z"/>
			<path fill="#FBB782" d="M350.197,180.626c2.681,1.876,3.859,1.201,4.417,0.558c0.557-0.644,1.2-2.358,1.2-2.358l-3.044-0.858
				l0.086,1.93C352.856,179.897,348.481,179.425,350.197,180.626z"/>
			<path fill="#FBB782" d="M303.779,184.876c11.558-4.476,46.491-8.566,46.491-8.566l0.277,0.89c0,0-33.992,19.689-44.788,17.624
				C294.926,192.75,299.107,186.686,303.779,184.876z"/>
			<path fill="#F79468" d="M309.737,188.924c-4.06-0.943-6.063-2.292-6.745-3.699c-4.31,2.137-7.452,7.642,2.768,9.598
				c10.796,2.066,44.788-17.624,44.788-17.624l-0.074-0.24C339.774,181.783,318.034,190.852,309.737,188.924z"/>
			<path fill="#FBB782" d="M357.101,176.795c-2.115-1.83-6.746-1.487-10.52,0.114l-1.086,2.23c3.145-0.687,7.775,0.686,9.205,1.029
				C356.129,180.512,359.216,178.625,357.101,176.795z"/>
			<path fill="#FBB782" d="M356.837,176.595c2.445,2.027,6.057,6.731,6.01,7.563c-0.046,0.813-2.846-1.85-3.581-2.822
				c-0.727-0.961-3.53-2.99-3.53-2.99L356.837,176.595z"/>
			<polygon fill="#EADDBE" points="377.192,137.521 350.46,196.453 323.526,197.87 321.905,199.288 405.95,198.073 434.707,137.521 
							"/>
			<path fill="#F3E9D3" d="M377.192,137.521c23.941,10.274,33.774,30.288,28.758,60.552l28.757-60.552H377.192z"/>
			<polygon fill="#D8C091" points="352.464,198.846 380.074,137.521 377.192,137.521 350.46,196.453 323.526,197.87 
				321.905,199.288 			"/>
			<path fill="#94486A" d="M426.708,167.088c-10.633,2.43-34.631,29.162-62.882,69.261l0.608,1.519c0,0,49.041-37.791,54.813-44.778
				C425.02,186.103,437.34,164.658,426.708,167.088z"/>
			<path fill="#7D3653" d="M420.233,188.629c-4.404,4.778-31.881,24.167-47.077,34.756c-3.049,4.146-6.161,8.466-9.33,12.964
				l0.608,1.519c0,0,49.327-37.048,55.1-44.035c3.101-3.754,7.803-12.423,10.108-18.579
				C426.806,180.376,422.854,185.785,420.233,188.629z"/>
			<path fill="#7D3653" d="M368.161,230.259l25.645-19.274c0,0,12.666-23.746,25.848-40.231
				C408.009,179.103,389.476,200.583,368.161,230.259z"/>
			<path fill="#94486A" d="M272.694,176.201c-6.379,4.557,7.29,13.974,20.049,27.036c12.759,13.063,36.148,17.011,72.906,34.63
				l1.519-0.912C323.425,195.643,279.073,171.644,272.694,176.201z"/>
			<path fill="#7D3653" d="M351.923,223.254c-30.73-12.926-50.795-16.96-62.44-28.462c-6.82-6.737-13.87-12.463-18.12-17.06
				c-2.287,4.968,9.606,14.821,21.076,26.564c12.759,13.062,36.453,15.953,73.211,33.572l1.519-0.912
				C362.073,232.144,356.973,227.578,351.923,223.254z"/>
			<path fill="#DBC7A1" d="M365.536,239.607l4.438-7.113c0,0-6.476-6.334-14.244-10.704L365.536,239.607z"/>
			<path fill="#EADDBE" d="M366.106,238.485l-5.592-1.946c0,0,4.453-7.853,16.482-13.548L366.106,238.485z"/>
			<path fill="#FEE8CA" d="M355.321,126.888c-3.798-2.031-9.418-5.012-10.937-5.164c-1.603-0.16-11.435,4.529-15.594,6.784
				c7.904,27.537,21.669,38.984,21.669,38.984S356.587,127.565,355.321,126.888z"/>
			<path fill="#DB2B28" d="M355.321,126.888c-0.303-0.162-0.619-0.331-0.941-0.502c-0.65,9.488-4.948,37.505-4.948,37.505
				s-12.564-10.463-20.578-35.416c-0.02,0.01-0.043,0.023-0.063,0.033c7.904,27.537,21.964,40.455,21.964,40.455
				S356.587,127.565,355.321,126.888z"/>
			<path fill="#FBB782" d="M335.12,125.774c-0.152-18.075,2.582-28.555,2.582-28.555l10.783,9.721l-0.607,16.252
				c0,0-2.582,5.468-5.924,5.923C338.613,129.571,335.12,125.774,335.12,125.774z"/>
			<g>
				<path fill="#E1D1B2" d="M442.408,238.061h-67.182c-11.89,0-15.306,34.601-3.417,34.601h67.182
					C432.922,268.004,433.761,243.551,442.408,238.061z"/>
				<path fill="#F89942" d="M379.36,236.354l-93.655,0c-18.604-0.556-20.657,37.458-2.052,38.014l93.656,0
					C361.358,273.893,363.411,235.878,379.36,236.354z"/>
				<path fill="#EC8128" d="M376.482,274.281c-6.81-0.799-10.077-8.733-10.151-17.158H270.7c0.187,8.745,4.363,16.989,12.954,17.245
					l92.829,0V274.281z"/>
				<path fill="#FDB94B" d="M443.134,236.354h-74.58l-0.672,3.603h74.579c0.995,0,1.952-0.807,2.138-1.801l0,0
					C444.785,237.161,444.129,236.354,443.134,236.354z"/>
				<path fill="#FDB94B" d="M441.52,271.24h-74.298l-0.72,3.128H440.8c0.994,0,1.962-0.7,2.161-1.564l0,0
					C443.16,271.94,442.515,271.24,441.52,271.24z"/>
				<path fill="#F3E8D4" d="M437.425,245.002h-57.982c-11.889,0-13.248,23.229-1.359,23.229l58.236,0
					C434.36,262.167,434.676,252.077,437.425,245.002z"/>
				<path fill="#FDB94B" d="M379.36,236.354h-11.134c-8.75,7.171-9.767,30.82-1.435,38.014h10.518
					C361.358,273.892,363.411,235.878,379.36,236.354z"/>
				<g opacity="0.39">
					<path fill="#FFFFFF" d="M360.713,273.036l-71.315-0.001c-4.966-0.133-9.003-2.623-11.385-7.015
						c-3.313-6.107-2.958-15.04,0.846-21.24c2.892-4.713,7.354-7.236,12.611-7.093h70.517l-1.559,1.203
						c-4.289,3.312-6.997,9.964-7.068,17.358c-0.063,6.761,2.128,12.591,5.864,15.591L360.713,273.036z M291.078,239.026
						c-4.597,0-8.513,2.283-11.074,6.458c-3.568,5.815-3.908,14.183-0.809,19.896c1.515,2.796,4.52,6.159,10.221,6.311l67.675,0.001
						c-3.262-3.459-5.135-9.085-5.074-15.457c0.066-6.997,2.415-13.395,6.226-17.205h-66.79
						C291.328,239.027,291.202,239.026,291.078,239.026z"/>
				</g>
			</g>
			<g>
				<path fill="#E1D1B2" d="M478.596,271.661H374.606c-18.402,0-19.375,66.51-0.973,66.51h103.989
					C467.648,329.218,465.896,282.213,478.596,271.661z"/>
				<path fill="#5F85BC" d="M380.792,268.381l-144.967,0c-28.867-1.068-27.301,72.002,1.567,73.071H382.36
					C357.61,340.536,356.044,267.465,380.792,268.381z"/>
				<path fill="#4F76A6" d="M381.069,341.283c-10.641-1.535-16.688-16.787-17.854-32.981H215.189
					c1.379,16.809,8.874,32.656,22.203,33.149H381.08L381.069,341.283z"/>
				<path fill="#749DCE" d="M479.507,268.381H364.065l-0.592,6.925h115.44c1.54,0,2.921-1.55,3.085-3.462l-0.001,0
					C482.162,269.931,481.046,268.381,479.507,268.381z"/>
				<path fill="#749DCE" d="M481.36,335.438H366.356l-0.725,6.014h115.004c1.54,0,2.95-1.346,3.15-3.007l0,0
					C483.986,336.784,482.9,335.438,481.36,335.438z"/>
				<path fill="#F3E8D4" d="M471.748,285.004h-89.75c-18.402,0-17.608,44.65,0.794,44.65h90.144
					C469.147,317.999,468.375,298.603,471.748,285.004z"/>
				<path fill="#749DCE" d="M380.792,268.381h-17.234c-12.648,13.784-11.271,59.243,2.523,73.07h16.279
					C357.611,340.536,356.044,267.465,380.792,268.381z"/>
				<g opacity="0.39">
					<path fill="#FFFFFF" d="M356.505,338.89l-110.388-0.003c-7.704-0.255-14.263-5.041-18.498-13.482
						c-5.89-11.74-6.454-28.91-1.341-40.827c3.888-9.059,10.48-13.909,18.635-13.634h109.151l-2.263,2.313
						c-6.226,6.365-9.588,19.152-8.774,33.366c0.744,12.996,4.865,24.202,11.021,29.97L356.505,338.89z M244.475,273.516
						c-7.115,0-12.892,4.388-16.336,12.413c-4.796,11.178-4.279,27.264,1.23,38.244c2.695,5.375,7.764,11.839,16.608,12.132
						l104.753,0.002c-5.481-6.647-9.083-17.463-9.784-29.709c-0.77-13.45,2.068-25.748,7.491-33.072H245.054
						C244.861,273.518,244.667,273.516,244.475,273.516z"/>
				</g>
			</g>
			<path opacity="0.6" fill="#C94544" d="M346.69,149.838c7.104-4.189,10.748-12.69,10.235-21.767
				c-0.441-0.268-0.927-0.545-1.482-0.835c-0.009-0.054-0.014-0.127-0.024-0.168c-0.025-0.097-0.059-0.158-0.098-0.18
				c-2.252-1.205-5.14-2.739-7.438-3.824l0.549-14.708c-3.358-3.537-7.37-5.987-11.541-7.127
				c-0.781,4.544-1.837,12.811-1.771,24.104c-2.389,1.131-4.709,2.3-6.267,3.142c-0.02,0.01-0.043,0.023-0.063,0.033
				c0.011,0.036,0.021,0.069,0.031,0.104c-0.419,0.203-0.784,0.389-1.085,0.553c-1.198,0.398-5.375,4.892-10.215,11.642
				C324.761,151.366,337.171,155.453,346.69,149.838z"/>
			<path fill="#FBB782" d="M335.989,92.126c-5.816,25.038,14.422,34.815,14.422,34.815s15.965-15.362,17.871-34.582
				c1.029-10.391-0.473-13.559-10.835-15.189C347.11,75.544,337.503,85.613,335.989,92.126z"/>
			<path fill="#803525" d="M337.196,106.13c5.324-15.498,6.496-28.534,0.159-27.85C331.019,78.964,328.235,101.208,337.196,106.13z"
				/>
			<path fill="#FBB782" d="M338.108,108.243c1.33-13.257,0.178-14.882-3.988-14.907C329.342,93.306,328.945,106.055,338.108,108.243
				z"/>
			<path fill="#DC5C3E" d="M336.739,105.194c0.797-7.944,0.106-8.918-2.391-8.933C331.485,96.244,331.248,103.883,336.739,105.194z"
				/>
			<path fill="#FBB782" d="M336.969,106.173c0.022-5.111-0.54-5.688-2.331-5.543C332.584,100.797,332.94,105.679,336.969,106.173z"
				/>
			<g>
				<path fill="#67433C" d="M362.648,101.255c0.356-2.083-0.396-3.913-1.69-4.088c-1.291-0.168-2.631,1.385-2.992,3.475
					c-0.362,2.087,0.396,3.917,1.686,4.085C360.942,104.896,362.286,103.345,362.648,101.255z"/>
				<path fill="#67433C" d="M349.978,99.543c0.491-2.397-0.222-4.546-1.607-4.819c-1.377-0.267-2.889,1.455-3.379,3.852
					c-0.49,2.39,0.227,4.552,1.605,4.816C347.978,103.662,349.485,101.935,349.978,99.543z"/>
				<path fill="#67433C" d="M342.887,97.554c0,0,4.935-2.565,8.659-1.319c0,0-0.59-2.064-3.542-1.984
					C345.06,94.335,342.887,97.554,342.887,97.554z"/>
				<path fill="#67433C" d="M364.628,99.707c0,0-3.5-3.021-7.097-2.564c0,0,1.137-1.688,3.661-1.137
					C363.718,96.554,364.628,99.707,364.628,99.707z"/>
				<g>
					<path fill="#7D4444" d="M342.743,92.991l-0.045-0.534c2.012-2.937,5.957-4.46,8.139-4.553l-0.132,1.835
						C348.978,89.439,344.853,90.592,342.743,92.991z"/>
				</g>
				<g>
					<path fill="#7D4444" d="M365.939,95.212c-1.706-3.358-5.841-4.583-6.896-4.604l0.433-1.779
						c1.179,0.076,4.964,1.615,6.864,5.797L365.939,95.212z"/>
				</g>
				<path fill="#EA7C59" d="M355.809,107.304c-0.028,0.068-0.025,0.134-0.06,0.197c-0.645,1.271-2.213,1.748-3.502,1.079
					c-0.76-0.399-1.212-1.116-1.359-1.904c-0.506,1.24-0.004,2.686,1.222,3.327c1.292,0.678,2.86,0.192,3.507-1.074
					C355.881,108.406,355.902,107.847,355.809,107.304z"/>
				<path fill="#491E2E" d="M346.487,113.285l8.832,1.421c0,0-1.907,4.258-5.488,3.582
					C346.4,117.64,346.487,113.285,346.487,113.285z"/>
				<path fill="#FEEBEB" d="M347.054,113.56l7.499,1.207c0,0,0.124,2.039-4.155,1.428C345.892,115.55,347.054,113.56,347.054,113.56
					z"/>
				<path fill="#EF9070" d="M351.468,120.018c0.136-0.544-0.768-0.127-1.713-0.284c-0.945-0.156-1.574-0.827-1.711-0.284
					c-0.137,0.544,0.52,1.111,1.465,1.269C350.454,120.875,351.331,120.562,351.468,120.018z"/>
			</g>
		</g>
		<g>
			<polygon fill="#8857A3" points="435.782,304.323 330.336,304.323 323.558,406.044 392.812,501.142 			"/>
			<polygon fill="#644D84" points="438.464,308.076 333.017,308.076 326.237,409.797 395.492,504.895 			"/>
			<polygon fill="#E2D6B0" points="437.541,312.947 332.095,312.947 293.747,490.746 394.569,509.766 			"/>
			<path fill="#F7F1DB" d="M341.62,321.331c18.767-0.503,34.538-1.831,34.538-6.12c0-0.178-0.05-0.351-0.089-0.524h-40.498
				L341.62,321.331z"/>
			<path fill="#3C2E51" d="M333.04,311.981c12.875,2.022,19.219,8.633,17.393,16.954C348.108,339.526,333.04,311.981,333.04,311.981
				z"/>
			<polygon fill="#644D84" points="449.985,327.501 344.539,327.501 301.567,524.319 407.015,524.319 			"/>
			<polygon fill="#4D3A6C" points="470.495,327.501 365.048,327.501 322.077,524.319 427.524,524.319 			"/>
			<path fill="#EADDBE" d="M349.976,341.17l-37.705,172.698h92.523l37.705-172.698H349.976z M403.267,511.019h-87.367
				l35.604-166.999h87.368L403.267,511.019z"/>
			<polygon opacity="0.6" fill="#C94544" points="350.601,304.407 353.437,307.809 352.724,312.743 365.048,327.531 
				381.165,327.531 384.985,304.407 			"/>
			<path fill="#F04F5D" d="M522.912,279.164l-110.099,0c-3.418,0-6.245,2.661-6.45,6.073L392.348,518.17
				c-0.224,3.714,2.729,6.85,6.45,6.85l118.312-0.001c3.506,0,6.372-2.795,6.459-6.3l5.803-232.933
				C529.462,282.155,526.544,279.164,522.912,279.164z"/>
			<path fill="#D73645" d="M459.682,279.163H416.49c-1.341,0-2.097,2.662-1.727,6.073l25.313,232.933
				c0.404,3.715,1.977,6.85,3.437,6.85h46.413c1.376,0,2.13-2.796,1.701-6.301l-28.535-232.933
				C462.647,282.155,461.106,279.163,459.682,279.163z"/>
			<g>
				<path fill="#EADDBE" d="M513.814,516.875h-94.835v-0.787l0.195-226.636h99.969c1.829,0,3.538,0.72,4.814,2.028
					c1.275,1.308,1.952,3.033,1.907,4.861l-5.331,213.979C520.442,513.996,517.49,516.875,513.814,516.875z M420.555,515.301h93.26
					c2.814,0,5.075-2.205,5.145-5.02l5.332-213.979c0.035-1.398-0.483-2.72-1.46-3.722c-0.979-1.001-2.287-1.553-3.688-1.553H420.75
					L420.555,515.301z"/>
			</g>
			<polygon fill="#D73645" points="414.944,279.163 379.81,279.163 375.62,525.02 414.731,525.019 			"/>
			<polygon fill="#B82238" points="379.81,279.163 379.741,283.185 410.119,283.496 412.28,525.019 414.731,525.019 
				414.944,279.163 			"/>
			<path fill="#6D3F4C" d="M482.828,367.902c0,0,26.371,76.885,26.415,79.571s-36.568,66.522-36.568,66.522l-0.866-0.256
				l18.511-64.476l-15.646-38.379L482.828,367.902z"/>
			<path fill="#5A2F3D" d="M479.283,386.588l-10.249,19.161l20.107,42.829l-17.333,65.162l0.171,0.05
				c6.905-15.753,25.242-62.973,25.205-65.212C497.154,446.73,487.076,409.478,479.283,386.588z"/>
			<path fill="#6D3F4C" d="M448.245,377.609c11.225,53.537,44.368,144.633,44.368,144.633h0.984l-13.225-116.251l6.564-6.221
				l-3.738-31.492C483.199,368.278,445.881,366.334,448.245,377.609z"/>
			<path fill="#5A2F3D" d="M453.149,391.205c15.416-14.344,20.912-13.941,25.335-12.199c4.424,1.743,8.312,0.402,8.312,0.402
				l-2.145-8.713l-30.966-1.609L453.149,391.205z"/>
			<g>
				<path fill="#5A2F3D" d="M454.115,370.842c-3.989,1.417-6.544,3.555-5.87,6.768c11.225,53.537,44.368,144.633,44.368,144.633
					h0.91C488.201,503.494,464.336,418.754,454.115,370.842z"/>
			</g>
			<polygon fill="#5A2F3D" points="480.797,407.659 471.648,404.141 480.897,403.939 488.94,397.304 			"/>
			<path fill="#FDB94B" d="M471.383,291.84c17.354,14.216,23.815,41.17,23.815,41.17l33.415-1.477l1.662,7.938
				c0,0-27.878,16.246-42.646,11.815C472.859,346.856,471.383,291.84,471.383,291.84z"/>
			<path fill="#F79468" d="M529.759,339.596c7.139,1.91,11.964,0.201,13.975-2.212s5.329-8.646,2.011-8.948
				c-3.317-0.302-17.493,5.43-17.493,5.43L529.759,339.596z"/>
			<path fill="#F7923E" d="M497.922,339.06c-9.768-2.931-5.898-27.078-26.539-47.22c0,0,1.477,55.016,16.246,59.447
				c14.769,4.431,42.646-11.815,42.646-11.815l-0.938-4.483C519.906,337.049,508.132,342.122,497.922,339.06z"/>
			<path fill="#EADDBE" d="M532.172,340.681c0,0.344-4.726-10.134-4.726-10.134l-9.249,0.658l1.072,6.871l2.815,0.114l-3.352,1.946
				l3.619,5.726L532.172,340.681z"/>
			<path fill="#FDB94B" d="M449.967,285.932c-14.534,18.413-9.916,43.364-6.495,55.238c3.422,11.873-2.119,35.825,6.997,46.415
				c0,0,13.164-14.408,22.386-13.204c9.223,1.205,11.459,5.886,13.874,3.821c2.415-2.065-0.655-30.837,0.879-38.753
				c1.535-7.916-0.751-29.288-10.999-41.678C466.359,285.382,449.967,285.932,449.967,285.932z"/>
			<path fill="#F36E32" d="M448.056,295.225c-1.608,0-3.161,0.816-4.635,2.309c-6.189,16.215-2.69,34.123,0.051,43.637
				c3.422,11.873-2.119,35.825,6.997,46.415c0,0,6.374-6.972,13.358-10.81c0.72-6.677,1.118-13.919,1.118-21.496
				C464.945,322.112,457.384,295.225,448.056,295.225z"/>
			<path fill="#7B4A3A" d="M460.068,271.722c-9.75-15.268-5.591-21.492-5.591-21.492s-5.289-8.012,0.079-15.561
				c0,0,0.435-11.291,13.971-13.817c0,0,8.925-9.617,16.006-4.068c0,0,8.271-6.571,12.194,6.266
				c3.923,12.837-1.003,12.746-1.003,12.746s7.748,16.63-4.765,20.697C478.446,260.56,460.068,271.722,460.068,271.722z"/>
			<path fill="#613529" d="M490.102,256.635c0,0-9.589-0.475-12.5-9.269c0,0-8.847-7.029-2.876-19.438c0,0-1.472-7.771,1.932-12.378
				c-4.479,1.387-8.13,5.302-8.13,5.302c-13.536,2.526-13.971,13.817-13.971,13.817c-5.368,7.549-0.079,15.561-0.079,15.561
				s-4.159,6.224,5.591,21.492c0,0,17.608-10.692,30.09-14.958C490.12,256.683,490.102,256.635,490.102,256.635z"/>
			<path fill="#EADDBE" d="M469.235,289.796l-19.269-3.863c15.139,7.2,29.624,20.485,29.624,20.485S474.6,293.065,469.235,289.796z"
				/>
			<polygon fill="#FBB782" points="449.967,285.933 463.997,251.409 476.183,267.84 471.013,292.395 			"/>
			<polygon fill="#DBCDAD" points="554.324,274.097 523.863,330.959 474.201,335.39 474.386,336.313 542.14,336.313 
				576.663,279.636 			"/>
			<polygon fill="#D1BB94" points="523.863,330.959 474.201,335.39 474.386,336.313 542.14,336.313 526.608,334.1 			"/>
			<polygon fill="#BA9E70" points="474.386,336.313 542.14,336.313 526.608,334.1 			"/>
			<polygon fill="#EEE3CB" points="560.781,275.698 526.547,334.101 542.14,336.313 576.663,279.636 			"/>
			<polygon fill="#F9F0E2" points="560.781,275.698 542.14,336.313 576.663,279.636 			"/>
			<path fill="#F36E32" d="M444.072,343.941c2.067,12.402-1.969,33.429,6.194,43.365c6.151-25.585,15.938-34.366,37.028-32.57
				c-0.172-5.766-0.249-11.184,0.169-14.369C475.865,338.77,456.313,337.438,444.072,343.941z"/>
			<path fill="#FDB94B" d="M462.197,333.362c-1.543-23.077-8.674-48.479-12.533-47.186c-4.564,1.529-12.187,11.203-13.538,25.048
				c-1.235,12.662,7.438,40.896,13.806,46.065c6.369,5.169,42.741-20.588,52.391-24.834l1.737-10.523
				C490.696,321.573,473.484,327.132,462.197,333.362z"/>
			<path fill="#F7923E" d="M464.882,331.957c11.319-4.744,26.303-8.305,38.068-7.404l-1.833,8.478
				c0.434-0.217,0.844-0.415,1.205-0.574l1.737-10.523C491.713,321.601,476.09,326.322,464.882,331.957z"/>
			<path fill="#F7923E" d="M453.697,348.671c-6.368-5.169-13.779-36.446-12.544-49.108c0.22-2.253,0.619-4.382,1.131-6.396
				c-2.896,4.413-5.433,10.626-6.158,18.059c-1.235,12.662,6.176,43.939,12.545,49.108s44.002-23.631,53.651-27.877l1.072-6.496
				C490.275,333.122,459.435,353.327,453.697,348.671z"/>
			<path fill="#F2E8CE" d="M506.022,524.986H492.49c0,0-1.87-3.341,0.894-4.724C496.959,518.476,506.022,524.986,506.022,524.986z"
				/>
			<path fill="#F2E8CE" d="M480.53,524.987h-7.617l-3.376-10.456c0,0,3.199-5.731,4.825-2.715c1.002,1.858,0.396,7.533,0.419,9.869
				C477.408,523.599,480.53,524.987,480.53,524.987z"/>
			<path fill="#644D84" d="M335.319,308.228c-2.011,6.133,12.768,17.694,16.488,19.304l-11.059,2.613l-11.16-16.388l0.838-9.483
				L335.319,308.228z"/>
			<path fill="#513E71" d="M346.981,330.479c-11.513-6.574-15.434-17.697-16.555-26.206l-42.861,196.81
				c1.785,9.894,6.128,18.052,14.548,23.445L346.981,330.479z"/>
			<polygon fill="#EADDBE" points="401.675,377.397 385.223,377.397 383.261,508.422 401.574,508.422 			"/>
			<polygon fill="#EADDBE" points="385.872,296.345 402.324,296.345 403.551,290.274 385.237,290.274 			"/>
			<polygon fill="#EADDBE" points="385.872,309.616 402.324,309.616 403.551,303.546 385.237,303.546 			"/>
			<path fill="#F79468" d="M517.13,323.584c0.304,3.175-0.467,5.192-1.174,5.556c-0.708,0.364-3.111-0.808-3.514-1.817
				C512.039,326.312,516.862,320.783,517.13,323.584z"/>
			<path fill="#FBB782" d="M516.346,321.74c-0.211,5.968-0.791,6.509-1.688,7.053c-0.896,0.544-3.693-0.169-4.01-1.104
				c-0.317-0.936,0.211-3.286,0.949-3.092c0.739,0.195,1.636,0.254,1.636,0.254L516.346,321.74z"/>
			<path fill="#FBB782" d="M513.94,320.019c-1.242-2.401-10.863-2.218-15.985,2.553l3.15,8.579c4.424-1.91,8.257-5.261,11.05-4.983
				C514.949,326.444,515.182,322.421,513.94,320.019z"/>
			<path fill="#FBB782" d="M512.833,323.015c-0.211,5.967-0.792,6.509-1.688,7.053c-0.897,0.544-3.694-0.169-4.011-1.104
				s0.211-3.286,0.95-3.092c0.738,0.194,1.636,0.254,1.636,0.254L512.833,323.015z"/>
			<path fill="#FBB782" d="M511.967,318.811c3.23,0.74,5.537,2.267,6.611,3.755c1.074,1.489,2.409,5.298,2.453,6.17
				c0.045,0.871-1.806,1.968-2.201,0.823c-0.396-1.144-1.634-4.564-1.97-4.704c-0.335-0.139-3.626-1.884-3.783-1.854
				C512.921,323.03,511.967,318.811,511.967,318.811z"/>
			<path fill="#EADDBE" d="M504.122,332.055c0,0.402-4.726-11.863-4.726-11.863l-9.249,0.771l1.072,8.043l2.814,0.134l-3.351,2.278
				l3.619,6.703L504.122,332.055z"/>
			<polygon fill="#EADDBE" points="448.592,286.377 451.272,281.954 472.386,289.796 471.112,293.817 			"/>
			<path opacity="0.6" fill="#C94544" d="M472.123,292.476c-0.143-0.173-0.287-0.326-0.431-0.49l0.693-2.189l-0.766-0.284
				l2.334-11.087c-3.504-6.567-8.376-13.118-13.848-17.442l-8.563,21.072l-0.271-0.1l-2.681,4.423l0.34,0.112
				c-1.912,0.928-4.215,3.108-6.355,6.258c12.135-0.461,28.975,11.576,35.148,7.863c0.461-0.276,0.821-0.685,1.106-1.186
				C476.81,296.937,474.581,294.579,472.123,292.476z"/>
			<path fill="#FBB782" d="M466.309,241.33c-7.376,18.1-7.299,35.002-7.239,36.312c0.061,1.31,11.881,10.06,15.938,10.857
				c0,0,14.409-18.213,17.396-33.44c2.987-15.228-0.871-18.987-5.438-19.926S469.169,234.31,466.309,241.33z"/>
			<path fill="#613529" d="M464.19,264.707c10.013-23.955,12.816-35.513,4.285-31.152c-8.53,4.36-7.938,27.668-7.938,27.668
				L464.19,264.707z"/>
			<path fill="#FBB782" d="M464.099,256.725c0.248-5.664-6.109-10.748-7.267-4.647c-1.156,6.101,2.675,15.175,4.198,13.326
				S464.016,258.626,464.099,256.725z"/>
			<path fill="#DC5C3E" d="M462.741,256.994c0.156-3.562-3.841-6.758-4.568-2.921c-0.728,3.836,1.682,9.542,2.64,8.379
				C461.771,261.29,462.689,258.19,462.741,256.994z"/>
			<path fill="#FBB782" d="M462.087,259.432c0.103-2.341-2.524-4.441-3.001-1.919c-0.478,2.521,1.105,6.27,1.734,5.506
				C461.45,262.254,462.053,260.217,462.087,259.432z"/>
			<g>
				<path fill="#503232" d="M488.139,259.27c0.668-1.545,0.494-3.063-0.389-3.385c-0.877-0.323-2.133,0.674-2.797,2.221
					c-0.664,1.544-0.493,3.061,0.385,3.381C486.222,261.813,487.475,260.821,488.139,259.27z"/>
				<path fill="#FBB782" d="M481.693,254.345c1.333-0.462,1.931,16.078,1.098,17.891c-0.413,0.902-6-2.187-6-2.187
					S481.45,254.425,481.693,254.345z"/>
				<path fill="#EA7C59" d="M482.083,254.953c0.614,3.526,1.207,15.415,0.498,16.917c-0.32,0.682-3.847-1.059-5.288-1.853
					c-0.096,0.335-0.156,0.528-0.156,0.528s5.867,3.582,6.259,2.679C484.148,271.482,483.158,255.849,482.083,254.953z"/>
				<path fill="#503232" d="M478.808,255.331c0.79-1.498,0.743-3.026-0.101-3.422c-0.847-0.405-2.175,0.489-2.965,1.981
					c-0.794,1.493-0.75,3.027,0.097,3.428C476.687,257.714,478.015,256.821,478.808,255.331z"/>
				<path fill="#7B4A3A" d="M486.688,244.397c-0.46-1.328-8.329-1.792-10.265-1.592c-1.933,0.2-2.334,1.611-2.401,3.085
					c-0.068,1.474,8.219,4.704,11.114,3.014C486.471,248.124,487.15,245.725,486.688,244.397z"/>
				<path fill="#7B4A3A" d="M488.185,251.508c-0.308,2.631,4.102,3.902,5.141,2.822c1.039-1.087,1.932-2.296,1.466-3.386
					c-0.468-1.095-3.285-4.626-4.387-3.906C489.306,247.757,488.323,250.298,488.185,251.508z"/>
				<path fill="#EA7C59" d="M473.31,277.162c0.14-0.272-0.525-0.941-1.485-1.493c-0.959-0.552-1.849-0.777-1.988-0.505
					c-0.139,0.273,0.525,0.941,1.484,1.493C472.28,277.208,473.171,277.435,473.31,277.162z"/>
				<path fill="#EA7C59" d="M468.42,269.495c0.178-0.309,0.294-0.496,0.294-0.496c2.471,3.548,4.229,5.638,9.893,8.46
					c-0.027,0.002-0.256,0.179-0.59,0.446C474.624,276.644,468.996,272.022,468.42,269.495z"/>
			</g>
			<path fill="#F79468" d="M545.442,334.166c2.748-2.882,5.027-8.78,4.357-10.857c-0.671-2.078-2.48-1.273-3.017-0.402
				s-1.14,7.373-1.475,8.914C544.974,333.362,545.442,334.166,545.442,334.166z"/>
			<path fill="#F79468" d="M543.432,336.981c2.272-2.152,3.576-6.556,2.563-8.107c-1.014-1.552-2.69-0.951-3.083-0.3
				c-0.393,0.65,0.079,5.505-0.002,6.655C542.83,336.381,543.432,336.981,543.432,336.981z"/>
		</g>
		<g>
			<polygon fill="#B8BF46" points="152.646,343.453 253.389,343.453 267.616,525.02 153.824,525.02 			"/>
			<polygon fill="#999B37" points="162.812,444.341 200.636,343.478 216.396,343.478 210.277,361.647 215.839,360.535 
				220.846,449.903 238.274,449.903 247.544,484.945 254.961,484.945 261.636,507.195 264.417,524.809 152.614,524.809 			"/>
			<g opacity="0.58">
				<path fill="#FFF9F2" d="M156.355,349.763l89.939-0.835l9.965,169.269l-98.842,0.531L156.355,349.763z M244.989,350.368
					l-87.243,0.808l1.068,166.064l95.942-0.519L244.989,350.368z"/>
			</g>
			<polygon fill="#A4A437" points="252.802,343.453 278.25,343.453 289.365,525.02 262.653,525.02 			"/>
			<polygon opacity="0.42" fill="#FFF9F2" points="263.252,371.279 275.703,371.279 283.366,499.419 270.296,499.419 			"/>
			<polygon fill="#999B37" points="254.926,343.453 264.705,525.02 260.922,525.02 251.072,343.453 			"/>
			<path fill="#7D3653" d="M150.909,426.172c-31.208,9.89-108.348,22.856-108.348,22.856L43,450.347h119.996L150.909,426.172z"/>
			<polygon fill="#602640" points="158.177,438.408 162.996,450.347 43,450.347 42.977,450.276 			"/>
			<path fill="#EADDBE" d="M156.11,408.654c24.522-14.41,26.595-17.823,30.927-26.8c4.333-8.978,7.959-27.527-1.347-28.112
				c-9.306-0.585-26.074,30.627-33.354,30.014S142.561,416.615,156.11,408.654z"/>
			<path fill="#D8C5A0" d="M150.263,384.021c1.495,2.91,7.287,5.914,10.572,2.656c13.748-13.632,15.513-26.143,22.558-29.851
				c0.779-0.41,6.628,0.559,6.991-0.364c2.785,5.846-0.078,18.063-3.347,24.835c-4.333,8.977-6.405,12.391-30.927,26.8
				C143.951,415.242,144.717,389.035,150.263,384.021z"/>
			<path fill="#EADDBE" d="M177.089,362.76c5.384-9.779,12.5-13.618,12.5-13.618s19.34-6.044,25.713,10.219
				c6.374,16.264-15.384,66.592-19.12,76.042s-7.912,12.526-29.01,10.988l-17.802-19.34
				C169.37,411.007,173.561,369.168,177.089,362.76z"/>
			<g>
				<path fill="#D8C5A0" d="M167.003,398.63c-1.452,10.894,10.873,22.024,15.462,21.669c7.339-0.567,17.066-27.886,25.031-50.864
					c2.184-6.302,3.19-11.931,3.358-16.777c1.77,1.641,3.316,3.814,4.448,6.703c6.374,16.264-15.384,66.592-19.12,76.042
					s-7.912,12.526-29.01,10.988l-17.802-19.34C157.545,420.493,163.076,409.626,167.003,398.63z"/>
			</g>
			<polygon fill="#DBC8A2" points="169.15,378.262 135.524,374.965 101.899,380.239 137.04,382.229 169.363,379.509 			"/>
			<polygon fill="#D3BB92" points="130.488,375.755 135.524,374.965 169.15,378.262 169.363,379.509 164.304,379.935 			"/>
			<polygon fill="#EADDBE" points="126.954,321.999 135.524,374.965 101.899,380.239 90.911,332.988 			"/>
			<polygon fill="#F3E8CE" points="126.954,321.999 101.899,380.239 90.911,332.988 			"/>
			<polygon fill="#DBC8A2" points="124.134,322.859 126.954,321.999 135.524,374.965 132.138,375.496 			"/>
			<path fill="#EADDBE" d="M190.005,409.916c21.082-19.093,22.439-21.105,24.857-30.775s2.198-28.57-7.033-27.252
				s-19.12,33.845-26.373,34.724C174.205,387.492,178.357,420.465,190.005,409.916z"/>
			<path fill="#D8C5A0" d="M181.457,386.612c4.601-0.558,10.264-13.854,16.146-23.837c3.39-5.752-8.028,23.329-15.281,24.208
				c-5.694,0.69-4.355,21.154,2.119,24.816C177.231,409.56,175.518,387.332,181.457,386.612z"/>
			<path fill="#D8C5A0" d="M189.904,395.104c21.082-19.093,22.417-22.856,24.834-32.526c0.233-0.933,0.441-1.951,0.619-3.028
				c1.373,6.019,0.846,14.225-0.496,19.592c-2.417,9.67-3.752,13.434-24.834,32.526c-9.975,9.034-14.462-15.12-10.992-22.8
				C180.873,395.34,184.614,399.895,189.904,395.104z"/>
			<path fill="#F79468" d="M151.752,385.057c-12.856-4.962-39.465-4.126-39.465-4.126l3.337,4.635c0,0,30.837,25.874,38.264,23.052
				C161.62,405.679,156.973,387.071,151.752,385.057z"/>
			<path fill="#FBB782" d="M190.248,385.294c-6.978-11.942-22.603-22.657-22.603-22.657l-7.066,4.855c0,0,16.268,43.44,23.57,45.043
				C191.451,414.138,193.02,390.038,190.248,385.294z"/>
			<path fill="#F79468" d="M184.272,397.826c3.5,0.768,5.679-4.371,6.698-10.45c1.655,7.432-0.284,26.594-6.822,25.159
				c-7.302-1.603-23.57-45.043-23.57-45.043S179.424,396.763,184.272,397.826z"/>
			<g>
				<path fill="#CE532F" d="M157.447,289.144c0,0-0.118,0.657-0.245,1.738C157.212,289.837,157.447,289.144,157.447,289.144z"/>
				<path fill="#7B4A3A" d="M157.202,290.882c-0.009,0.879,0.137,2.002,0.74,3.206c1.318,2.638,8.406,3.627,4.945-7.912
					c-3.461-11.538,6.428-13.021,6.428-13.021s-6.264,5.439,0.989,8.406c7.252,2.967,3.791-6.428,11.208-7.582
					c7.417-1.154,9.725,10.055,9.725,10.055s2.967-6.923,13.351-2.967c10.384,3.956,3.626,12.197,3.626,12.197
					s9.725,1.648,10.384,14.506c0.659,12.856-6.429,8.076-6.429,8.076c1.154,7.912-5.604,11.538-5.604,11.538
					s-1.813,3.297-2.967,11.703l-29.504-27.032C155.448,317.242,156.478,297.038,157.202,290.882z"/>
				<path fill="#613529" d="M178.294,307.972c13.131-6.18,25.349-13.794,22.79-26.772c-0.079-0.4-0.199-0.78-0.299-1.171
					c1.144,0.181,2.4,0.504,3.803,1.039c10.384,3.956,3.626,12.197,3.626,12.197s9.725,1.648,10.384,14.506
					c0.659,12.856-6.429,8.076-6.429,8.076c1.154,7.912-5.604,11.538-5.604,11.538s-1.813,3.297-2.967,11.703l-29.504-27.032
					c-9.778,2.72-14.141-1.544-15.979-7.101C162.07,310.567,165.686,313.904,178.294,307.972z"/>
			</g>
			<path fill="#FBB782" d="M200.467,323.099l6.593,26.867c-6.715,0.961-12.734,4.568-18.131,10.549l-3.132-28.846L200.467,323.099z"
				/>
			<path fill="#7D3653" d="M133.327,383.097l7.912-3.517c17.142,4.615,44.833,60.657,44.833,60.657s-7.033,9.89-14.945,9.89
				c-10.988,0-19.999,0-19.999,0l-10.33-48.131l-21.318,46.373l-1.758-0.66C117.723,447.709,129.151,392.767,133.327,383.097z"/>
			<path fill="#602640" d="M141.799,386.184c0,0,10.691,6.682,19.612,12.451c12.922,17.853,24.662,41.603,24.662,41.603
				s-7.033,9.89-14.945,9.89c-10.988,0-19.999,0-19.999,0l-10.33-48.131l-21.318,46.373l-0.928-0.349L141.799,386.184z"/>
			<g>
				<path fill="#CEB995" d="M236.583,451.141h-86.297c-15.271,0-19.662,32.494-4.39,32.494h86.297
					C224.397,479.261,225.476,456.296,236.583,451.141z"/>
				<path fill="#FDB94B" d="M151.568,449.538H64.257c-17.344-0.521-19.258,35.178-1.913,35.699h87.311
					C134.785,484.79,136.698,449.091,151.568,449.538z"/>
				<g>
					<path fill="#FDB94B" d="M237.356,449.538H66.463l-0.716,3.384H236.64c1.059,0,2.078-0.758,2.275-1.691v-0.001
						C239.113,450.296,238.415,449.538,237.356,449.538z"/>
					<path fill="#FDB94B" d="M235.637,482.299H65.045l-0.767,2.938h170.592c1.059,0,2.089-0.658,2.301-1.47l0,0
						C237.383,482.957,236.696,482.299,235.637,482.299z"/>
				</g>
				<g>
					<path fill="#EF7436" d="M238.099,449.537l-91.179,0.001l-0.382,3.383h91.179c0.565,0,1.108-0.758,1.214-1.691v-0.001
						C239.037,450.295,238.664,449.537,238.099,449.537z"/>
					<path fill="#EF7436" d="M237.182,482.299h-91.019l-0.409,2.938l91.019-0.001c0.565,0,1.114-0.657,1.228-1.469l0,0
						C238.113,482.957,237.747,482.299,237.182,482.299z"/>
				</g>
				<path fill="#EF7436" d="M155.524,452.186H68.213c-17.344-0.444-19.258,29.959-1.913,30.403h87.311
					C132.489,481.223,134.402,450.819,155.524,452.186z"/>
				<path fill="#DDCBA6" d="M153.17,453.309l-77.117,0.38c-15.52-0.415-17.232,27.991-1.712,28.406h78.125
					C139.161,481.738,139.865,452.953,153.17,453.309z"/>
				<path fill="#EADDBE" d="M142.294,457.145H80.938c-12.188-0.314-13.533,21.18-1.345,21.493l61.356,0.001
					C130.5,478.369,131.844,456.875,142.294,457.145z"/>
			</g>
			<g>
				<path fill="#5F85BC" d="M166.526,484.654H43.283c-7.637,0-7.735,40.364-0.098,40.364l123.243,0.001
					C156.552,525.02,156.65,484.654,166.526,484.654z"/>
				<path fill="#DDCBA6" d="M255.1,489.403h-88.407c-15.645,0-15.72,30.867-0.075,30.867h88.407
					C246.443,516.115,244.422,494.301,255.1,489.403z"/>
				<path fill="#EADDBE" d="M187.432,514.131c-12.099,0-12.042-18.588,0.058-18.588h61.963c-2.4,5.527-2.03,13.137,0.355,18.588
					H187.432z"/>
				<path fill="#4C709C" d="M254.223,484.655l-101.918-0.001l-0.017,7.124h101.917c1.309,0,2.375-1.595,2.379-3.562l0,0
					C256.589,486.249,255.532,484.655,254.223,484.655z"/>
				<path fill="#4C709C" d="M254.142,517.896l-101.917-0.001l-0.018,7.124h101.918c1.309,0,2.374-1.595,2.379-3.562l0,0
					C256.508,519.491,255.451,517.896,254.142,517.896z"/>
				<path fill="#4C709C" d="M166.428,525.02h-16.985c-5.851-7.618-5.79-32.748,0.098-40.365h16.985
					C156.65,484.654,156.552,525.02,166.428,525.02z"/>
				<g>
					<path fill="#DDCBA6" d="M48.404,504.987c0-7.664,1.252-16.612,4.783-16.612h87.87v1.473c-2.651,0-4.651,6.494-4.651,15.106
						c0,8.479,1.97,14.872,4.582,14.872v1.473h-87.87C49.638,521.299,48.404,512.513,48.404,504.987z M135.077,504.954
						c0-6.158,1.029-12.355,3.268-15.106H53.188c-1.905,0-3.454,6.791-3.454,15.14c0,9.288,1.721,14.839,3.385,14.839h85.172
						C136.09,517.104,135.077,511.008,135.077,504.954z"/>
				</g>
			</g>
			<path fill="#F3E6C9" d="M103.357,449.471h16.811c0,0,2.349-2.72-0.618-4.203C116.583,443.784,103.357,449.471,103.357,449.471z"
				/>
			<path fill="#F3E6C9" d="M33.278,436.774l7.9,14.839c0,0,3.504,0.795,3.419-2.521C44.512,445.776,33.278,436.774,33.278,436.774z"
				/>
			<path opacity="0.6" fill="#C94544" d="M188.893,372.587c-6.42-1.398-8.585-8.129-8.674-16.553
				c1.105-0.832,2.171-1.481,3.177-1.865c1.73-1.79,3.298-3.057,4.424-3.871l-2.022-18.629l14.67-8.57l6.593,26.867
				c-0.043,0.006-0.084,0.018-0.127,0.024c1.1,0.531,2.167,1.196,3.173,2.018c1.98,0.539,3.392,2.26,4.354,4.639
				C204.363,358.641,198.107,374.594,188.893,372.587z"/>
			<path fill="#FBB782" d="M197.995,301.671c4.932,19.726,1.813,38.569,1.813,38.569s-13.352,8.077-21.593,8.242
				c0,0-7.582-31.482-4.615-44.01S197.006,297.715,197.995,301.671z"/>
			<path fill="#613529" d="M196.182,329.197c-1.488-17.631-2.596-29.063,2.795-26.446s3.542,22.451,3.542,22.451L196.182,329.197z"
				/>
			
				<ellipse transform="matrix(-0.9931 0.1175 -0.1175 -0.9931 387.548 617.2017)" fill="#643E38" cx="175.582" cy="320.024" rx="1.043" ry="2.226"/>
			
				<ellipse transform="matrix(-0.9931 0.1175 -0.1175 -0.9931 405.595 613.5421)" fill="#643E38" cx="184.713" cy="318.726" rx="1.043" ry="2.226"/>
			<polygon fill="#EADDBE" points="167.611,321.011 170.107,330.04 189.967,327.986 190.401,319.877 204.943,317.769 
				208.416,322.123 211.346,319.527 206.788,316.215 			"/>
			<polygon fill="#FBB782" points="174.864,321.29 168.869,322.094 170.785,328.83 175.173,328.212 			"/>
			<polygon fill="#FBB782" points="174.864,321.15 168.869,321.954 170.785,328.69 175.173,328.073 			"/>
			<polygon fill="#FCC6A0" points="174.996,328.098 173.477,328.312 169.043,321.931 170.924,321.679 			"/>
			<path fill="#FBB782" d="M199.705,319.59c1.722-4.703,8.297-3.673,7.138-0.176c-1.16,3.498-6.049,9.927-7.327,8.894
				C198.238,327.273,199.234,320.878,199.705,319.59z"/>
			<path fill="#FBB782" d="M175.915,322.278c-0.196-0.121-3.09,12.008-3.262,13.064s6.847-1.057,6.847-1.057
				S176.455,322.615,175.915,322.278z"/>
			<path fill="#DC5C3E" d="M200.999,320.843c0.985-2.692,4.749-2.103,4.085-0.101s-3.462,5.682-4.193,5.09
				S200.729,321.58,200.999,320.843z"/>
			<path fill="#FBB782" d="M200.763,323.245c0.626-1.712,3.02-1.337,2.598-0.063c-0.422,1.272-2.202,3.613-2.667,3.236
				C200.229,326.042,200.592,323.714,200.763,323.245z"/>
			<polygon fill="#FBB782" points="176.965,321.043 179.004,328.336 188.46,327.1 189.017,319.683 			"/>
			<polygon fill="#FCC6A0" points="178.169,320.907 182.205,320.451 188.275,327.123 184.298,327.644 			"/>
			<path fill="#F79468" d="M175.915,322.278c0.102,0.063,0.293,0.531,0.536,1.246c-0.917,3.492-2.497,10.18-2.624,10.952
				c-0.125,0.767,3.524-0.132,5.543-0.686c0.083,0.313,0.129,0.495,0.129,0.495s-7.02,2.113-6.847,1.057
				C172.825,334.286,175.719,322.157,175.915,322.278z"/>
			<path fill="#643E38" d="M173.119,323.813c-0.634,0.061-1.258-0.811-1.586-2.076l2.75-0.368
				C174.219,322.725,173.769,323.749,173.119,323.813z"/>
			<path fill="#643E38" d="M184.167,323.189c-0.751,0.056-1.464-1.143-1.709-2.767l2.989-0.337
				C185.468,321.782,184.936,323.133,184.167,323.189z"/>
			<path fill="#7B4A3A" d="M192.048,314.752c-5.897,0.343-12.694-0.908-12.694-0.908l-0.505-5.326c0,0,11.57,2.001,12.582,2.988
				C192.441,312.494,192.048,314.752,192.048,314.752z"/>
			<path fill="#7B4A3A" d="M170.217,316.162c3.45-0.229,7.187-2.119,7.187-2.119l-0.482-5.318c0,0-6.38,3.092-6.82,4.166
				C169.663,313.966,170.217,316.162,170.217,316.162z"/>
			<path fill="#482A22" d="M178.34,336.432l10.569-2.829c0,0,0.454,6.473-4.831,7.493S178.34,336.432,178.34,336.432z"/>
			<path fill="#FFF6E4" d="M179.625,338.29c-0.459-0.974-0.534-1.901-0.534-1.901l9.069-2.428c0,0,0.06,0.933-0.173,2.091
				L179.625,338.29z"/>
			<path fill="#DBC8A2" d="M110.556,355.635c1.323-0.219,2.081-2.3,1.693-4.648c-0.196-1.184-0.646-2.207-1.213-2.905
				c0.931,0.539,1.745,1.909,2.028,3.618c0.388,2.348-0.37,4.429-1.693,4.647c-0.656,0.108-1.327-0.263-1.885-0.949
				C109.833,355.6,110.196,355.693,110.556,355.635z"/>
			<path fill="#D3BB92" d="M109.347,345.627c1.277-0.212,2.597,0.977,3.457,2.862c-0.814-1.212-1.838-1.916-2.839-1.75
				c-1.799,0.297-2.812,3.229-2.263,6.547c0.159,0.962,0.441,1.837,0.792,2.607c-0.649-0.966-1.167-2.248-1.411-3.72
				C106.535,348.854,107.548,345.924,109.347,345.627z"/>
			<path fill="#F79468" d="M145.825,364.219c-0.355,2.931,0.546,4.784,1.375,5.114c0.829,0.33,3.644-0.771,4.115-1.705
				C151.787,366.693,146.139,361.634,145.825,364.219z"/>
			<path fill="#FBB782" d="M146.743,362.513c0.247,5.501,0.927,5.995,1.978,6.489c1.051,0.495,4.326-0.186,4.697-1.051
				c0.371-0.865-0.248-3.028-1.112-2.843c-0.865,0.186-1.916,0.247-1.916,0.247L146.743,362.513z"/>
			<path fill="#FBB782" d="M149.561,360.906c1.454-2.226,12.723-2.133,18.721,2.225l-6.119,6.118c-2-3.244-7.24-2.966-10.512-2.688
				C148.38,366.839,148.107,363.131,149.561,360.906z"/>
			<path fill="#FBB782" d="M149.092,363.579c0.247,5.5,0.927,5.995,1.978,6.489s4.326-0.186,4.697-1.051
				c0.371-0.865-0.248-3.028-1.113-2.843s-1.916,0.247-1.916,0.247L149.092,363.579z"/>
			<path fill="#FBB782" d="M151.873,359.775c-3.784,0.709-6.485,2.135-7.743,3.517c-1.258,1.381-2.821,4.904-2.874,5.708
				c-0.052,0.805,2.116,1.8,2.579,0.742s1.913-4.223,2.306-4.354c0.393-0.131,4.247-1.767,4.431-1.74
				C150.755,363.674,151.873,359.775,151.873,359.775z"/>
			<path fill="#F79468" d="M119.241,388.254c-8.437-3.615-12.979-2.039-15.019-7.88l12.793,0.494L119.241,388.254z"/>
			<path fill="#F79468" d="M109.599,383.341c-2.843-1.607-3.523-3.894-3.523-5.377s-2.287-1.854-2.348-0.433
				c-0.062,1.422,0.494,3.152,1.112,4.079S109.599,383.341,109.599,383.341z"/>
			<path fill="#F79468" d="M112.813,383.588c-2.843-1.606-3.523-3.894-3.523-5.377s-2.287-1.854-2.349-0.433
				c-0.062,1.422,0.495,3.152,1.113,4.079S112.813,383.588,112.813,383.588z"/>
			<path fill="#F79468" d="M116.212,383.896c-2.843-1.606-3.523-3.894-3.523-5.377c0-1.482-2.287-1.854-2.349-0.433
				c-0.062,1.422,0.495,3.152,1.112,4.079C112.071,383.094,116.212,383.896,116.212,383.896z"/>
		</g>
	</g>
	<rect id="XMLID_1367_" x="-69.797" y="522.762" display="none" fill="#554041" width="1000" height="62.961"/>
	<g display="none">
		<g display="inline">
			<path fill="#FFFFFF" d="M781.91,409.403c-14.583,8.515-19.502,27.238-10.987,41.82s27.237,19.501,41.82,10.987
				c14.582-8.515,19.501-27.238,10.986-41.82S796.492,400.89,781.91,409.403z M804.68,448.401
				c-6.955,4.062-15.887,1.715-19.948-5.24c-4.062-6.956-1.715-15.887,5.241-19.948s15.887-1.715,19.948,5.241
				C813.981,435.409,811.636,444.34,804.68,448.401z"/>
			<g>
				<polygon fill="#FFFFFF" points="818.381,450.432 799.713,461.331 812.85,475.607 824.357,468.889 				"/>
				<polygon fill="#FFFFFF" points="775.674,420.16 794.342,409.26 781.206,394.984 769.698,401.703 				"/>
			</g>
			<g>
				<polygon fill="#FFFFFF" points="781.892,456.649 770.992,437.981 756.716,451.117 763.435,462.625 				"/>
				<polygon fill="#FFFFFF" points="812.163,413.942 823.063,432.61 837.339,419.474 830.62,407.967 				"/>
			</g>
			<g>
				<polygon fill="#FFFFFF" points="771.226,439.692 776.719,418.785 757.335,417.979 753.949,430.867 				"/>
				<polygon fill="#FFFFFF" points="822.83,430.899 817.337,451.807 836.72,452.612 840.106,439.725 				"/>
			</g>
			<g>
				<polygon fill="#FFFFFF" points="792.631,409.494 813.539,414.986 814.345,395.604 801.456,392.218 				"/>
				<polygon fill="#FFFFFF" points="801.425,461.098 780.517,455.604 779.711,474.988 792.599,478.374 				"/>
			</g>
		</g>
		<g display="inline">
			<path fill="#FFFFFF" d="M723.614,426.207c-10.816-1-20.396,6.958-21.396,17.774c-1,10.817,6.958,20.396,17.775,21.396
				c10.816,1,20.396-6.958,21.396-17.774C742.39,436.786,734.432,427.207,723.614,426.207z M720.94,455.135
				c-5.16-0.477-8.956-5.047-8.479-10.206c0.478-5.159,5.047-8.956,10.206-8.479c5.16,0.478,8.956,5.047,8.479,10.206
				C730.669,451.815,726.1,455.611,720.94,455.135z"/>
			<g>
				<polygon fill="#FFFFFF" points="727.351,461.323 713.503,460.043 715.036,472.429 723.572,473.218 				"/>
				<polygon fill="#FFFFFF" points="716.327,429.503 730.174,430.783 728.641,418.397 720.104,417.608 				"/>
			</g>
			<g>
				<polygon fill="#FFFFFF" points="705.929,450.925 707.209,437.078 694.823,438.611 694.033,447.146 				"/>
				<polygon fill="#FFFFFF" points="737.749,439.901 736.469,453.749 748.854,452.215 749.644,443.68 				"/>
			</g>
			<g>
				<polygon fill="#FFFFFF" points="706.691,438.061 717.388,429.174 707.546,421.5 700.951,426.979 				"/>
				<polygon fill="#FFFFFF" points="736.986,452.766 726.29,461.652 736.132,469.326 742.726,463.848 				"/>
			</g>
			<g>
				<polygon fill="#FFFFFF" points="729.191,430.266 738.078,440.962 745.752,431.12 740.273,424.526 				"/>
				<polygon fill="#FFFFFF" points="714.486,460.561 705.6,449.864 697.926,459.706 703.403,466.3 				"/>
			</g>
		</g>
	</g>
	<g display="none">
		<polygon display="inline" fill="#FFFFFF" points="149.233,124.743 123.901,124.743 130.824,149.473 142.311,149.473 		"/>
		<polygon display="inline" fill="#FFFFFF" points="139.509,146.967 133.626,146.967 134.439,151.547 138.695,151.547 		"/>
		<path display="inline" fill="#FFFFFF" d="M136.567,72.609c-14.102,0-24.197,13.835-24.197,30.902
			c0,17.067,10.095,30.902,24.197,30.902c14.102,0,24.197-13.835,24.197-30.902C160.765,86.445,150.669,72.609,136.567,72.609z
			 M131.113,130.267c-12.209-2.417-18.351-16.355-15.496-31.132c2.854-14.777,14.195-24.795,26.405-22.378
			c12.209,2.417,18.351,16.356,15.497,31.132C154.663,122.665,143.323,132.684,131.113,130.267z"/>
		<g display="inline">
			<path fill="#FFFFFF" d="M141.932,132.729l-2.59-0.137l2.778-24.267c-3.388,1.042-6.988,0.577-9.371,0.027l3.625,23.168
				l-2.768,0.551l-5.58-29.982l2.788,1.151c0.083,0.034,7.512,3.036,12.624-0.039l2.797-1.682L141.932,132.729z"/>
		</g>
		<path display="inline" fill="#FFFFFF" d="M97.106,136.363c3.198-2.56,10.191-9.637,8.759-10.895
			c-1.432-1.258-10.188,4.273-13.385,6.833c-3.198,2.56-4.91,5.409-3.477,6.666C90.436,140.225,93.909,138.923,97.106,136.363z"/>
		<path display="inline" fill="#FFFFFF" d="M186.054,126.27c-3.634-2.003-13.461-6.156-14.891-4.89
			c-1.43,1.266,6.639,6.976,10.273,8.978c3.634,2.003,7.459,2.848,8.889,1.582C191.754,130.674,189.688,128.272,186.054,126.27z"/>
		<path display="inline" fill="#FFFFFF" d="M204.612,96.804c-3.442-0.415-12.103-0.623-12.404,0.699
			c-0.303,1.321,7.987,3.155,11.429,3.569s6.417-0.062,6.719-1.383C210.659,98.367,208.054,97.218,204.612,96.804z"/>
		<path display="inline" fill="#FFFFFF" d="M124.597,48.485c0.475,3.04,2.573,10.463,4.084,10.36
			c1.51-0.103,1.27-7.653,0.795-10.693c-0.475-3.041-1.789-5.442-3.3-5.338C124.666,42.917,124.122,45.444,124.597,48.485z"/>
		<path display="inline" fill="#FFFFFF" d="M74.166,105.948c3.873-0.43,13.114-2.558,12.636-4.298
			c-0.479-1.74-10.309-1.752-14.182-1.322c-3.873,0.429-6.718,1.848-6.239,3.588C66.86,105.656,70.293,106.377,74.166,105.948z"/>
		<path display="inline" fill="#FFFFFF" d="M178.97,50.028c-3.041,2.14-9.651,8.182-8.225,9.438s9.792-3.243,12.833-5.382
			c3.041-2.14,4.628-4.647,3.202-5.902C185.353,46.925,182.011,47.888,178.97,50.028z"/>
		<path display="inline" fill="#FFFFFF" d="M73.199,61.202c3.8,2.931,13.701,9.305,14.946,8.04
			c1.385-1.405-8.545-10.837-13.048-14.358c-4.559-3.563-8.424-4.861-8.613-2.452C66.313,54.595,69.359,58.241,73.199,61.202z"/>
	</g>
	<g display="none">
		<rect x="38.041" y="247.705" display="inline" fill="#F8E1ED" width="70.099" height="41.48"/>
		<polygon display="inline" fill="#F8E1ED" points="74.175,282.627 80.732,307.43 86.434,281.772 		"/>
	</g>
</g>
</svg>
